894068 414443 525
360889 966760 525
24518 811135 509
144035 694981 509
497168 247275 449
433806 762208 509
371936 8185 443
278637 677798 509
253075 482628 449
466177 430565 444
121178 85347 354
498116 137184 449
77107 74952 351
454401 638584 509
601623 359424 470
287553 439168 449
911107 8612 525
799734 630563 504
169591 157677 370
757855 28427 509
435637 796261 509
7402 600387 470
530515 994635 525
906257 813941 525
528062 960312 525
158789 989322 525
318965 877145 525
71697 323449 443
990710 325160 525
150888 442743 449
402625 675204 509
728112 145505 509
902419 800357 525
252823 175586 443
221052 739255 509
955086 210215 525
57118 218755 386
616218 794161 509
96003 719052 509
152736 273167 443
344704 708632 509
994312 201067 525
857363 844894 419
826583 561829 509
602316 25128 470
74146 70293 325
317173 768876 509
558135 919642 525
418211 243864 449
506821 521208 470
93985 432039 449
598246 940268 525
605820 228385 470
932731 42982 525
40749 322673 443
872807 522943 525
582116 323121 470
41836 425070 449
61660 921689 525
574174 999586 525
682339 794849 504
983461 434778 525
416882 92933 449
926704 485318 525
522164 648165 509
245771 249495 350
708768 669416 504
161128 386253 443
878798 574291 525
461980 199045 449
619200 510909 470
209981 61904 383
204064 957542 525
468526 202711 449
124883 863965 525
145124 484282 449
805398 60109 509
339840 395840 441
355895 942383 525
918419 361737 525
934766 733322 525
55027 832522 509
482557 264276 449
537917 602799 452
510893 262357 449
913670 823715 525
16612 431311 449
123442 212414 383
377824 788078 509
253313 113425 443
807260 762247 468
659672 497362 509
504297 717091 509
427138 667901 509
768925 769484 393
843217 182216 525
328937 166193 443
428137 801653 509
828005 431527 509
369536 370216 392
921556 323613 525
933197 862218 476
214256 663411 509
722789 25045 509
152772 988281 525
369570 883771 525
773632 25854 509
347285 871467 525
898363 184174 525
127972 502327 449
966747 610498 525
821181 314345 509
203894 883847 525
772082 274070 509
227983 75361 386
333229 958045 525
522887 735680 509
170228 603858 470
423545 350028 449
13338 558293 470
391823 939394 525
725022 740921 424
396728 780108 509
917737 488483 525
155249 664342 509
126750 548801 470
838688 730496 525
719529 52487 509
604283 655119 509
306277 6538 443
972996 916969 507
405401 225997 443
641784 919020 525
513263 648164 509
792249 985638 525
529281 658417 509
337482 639883 509
695463 397517 509
835035 109807 509
823732 17354 509
986338 712834 525
604891 505404 470
741514 623744 509
219837 7724 386
33423 544478 470
306642 546165 470
75910 962925 525
576391 647515 509
978593 13065 525
16138 680641 509
154192 430253 449
669152 632232 442
624244 733158 509
440581 642603 509
865222 557804 525
240950 870059 525
279425 19337 443
50411 155656 375
723656 83626 509
163423 519765 470
783593 193467 509
956528 737655 525
642871 813115 504
11180 113392 354
463292 130074 449
319069 99669 443
166214 884508 525
599141 595747 372
385033 184336 443
463530 596514 470
144837 208020 383
283875 362737 441
517659 897247 525
129998 435897 449
100413 98158 341
79679 630578 509
667477 122466 509
531281 603193 452
761003 368745 509
890208 717901 525
299440 469393 449
145728 708894 509
508370 410175 444
406416 72797 443
607653 206995 470
420496 215754 449
725002 18446 509
471611 126826 449
448491 22923 449
811074 752671 468
279143 995493 525
964383 308022 525
999608 282442 525
832821 472323 509
636100 790346 504
500198 794925 509
258117 681709 509
50311 659603 509
334121 700665 509
502446 843675 525
